{
	"info": {
		"_postman_id": "b3d0b0e7-d90e-49e9-be37-e86a129fe0fc",
		"name": "AXA",
		"schema": "https://schema.getpostman.com/json/collection/v2.1.0/collection.json"
	},
	"item": [
		{
			"name": "CreateUser",
			"request": {
				"method": "POST",
				"header": [
					{
						"key": "Content-Type",
						"value": "application/json"
					}
				],
				"body": {
					"mode": "raw",
					"raw": "{\r\n  \"invitation_code\": \"ABCDEFGHIJKLMNOPQRSTUVWXYZ\",\r\n  \"username\": \"johndoey11\",\r\n  \"first_name\": \"john\",\r\n  \"last_name\": \"doe\",\r\n  \"password\": \"complexEnough!1\",\r\n  \"email\": \"john1@doe.com\",\r\n  \"confirmation_language\": \"en\",\r\n  \"confirmation_template\": \"greatPartner_registrationTemplate\"\r\n}"
				},
				"url": {
					"raw": "http://localhost:8081/axa-poc//user/v1/register",
					"protocol": "http",
					"host": [
						"localhost"
					],
					"port": "8081",
					"path": [
						"axa-poc",
						"",
						"user",
						"v1",
						"register"
					]
				}
			},
			"response": []
		},
		{
			"name": "CreateUser_Existing_user",
			"request": {
				"method": "POST",
				"header": [
					{
						"key": "Content-Type",
						"value": "application/json"
					}
				],
				"body": {
					"mode": "raw",
					"raw": "{\r\n  \"invitation_code\": \"ABCDEFGHIJKLMNOPQRSTUVWXYZ\",\r\n  \"username\": \"johndoey11\",\r\n  \"first_name\": \"john\",\r\n  \"last_name\": \"doe\",\r\n  \"password\": \"complexEnough!1\",\r\n  \"email\": \"john1@doe.com\",\r\n  \"confirmation_language\": \"en\",\r\n  \"confirmation_template\": \"greatPartner_registrationTemplate\"\r\n}"
				},
				"url": {
					"raw": "http://localhost:8081/axa-poc//user/v1/register",
					"protocol": "http",
					"host": [
						"localhost"
					],
					"port": "8081",
					"path": [
						"axa-poc",
						"",
						"user",
						"v1",
						"register"
					]
				}
			},
			"response": []
		},
		{
			"name": "QuoteSearch",
			"request": {
				"method": "POST",
				"header": [
					{
						"key": "Content-Type",
						"value": "application/json"
					}
				],
				"body": {
					"mode": "raw",
					"raw": "{\r\n  \"service\": \"TOWING\",\r\n  \"place_type\": \"BASEMENT\",\r\n  \"current_location\": {\r\n    \"longitude\": 0,\r\n    \"latitude\": 0\r\n  },\r\n  \"destination_location\": {\r\n    \"longitude\": 0,\r\n    \"latitude\": 0\r\n  },\r\n  \"vehicle\": {\r\n    \"brand\": \"Audi\",\r\n    \"model\": \"A5\"\r\n  },\r\n  \"to_schedule_on\": \"2010-01-01T12:00:00+01:00\"\r\n}"
				},
				"url": {
					"raw": "http://localhost:8081/axa-poc/roadside/quotes/search",
					"protocol": "http",
					"host": [
						"localhost"
					],
					"port": "8081",
					"path": [
						"axa-poc",
						"roadside",
						"quotes",
						"search"
					]
				}
			},
			"response": []
		},
		{
			"name": "createRoadSideOrder",
			"request": {
				"method": "POST",
				"header": [
					{
						"key": "Content-Type",
						"value": "application/json"
					}
				],
				"body": {
					"mode": "raw",
					"raw": "{\r\n  \"customer_id\": \"string\",\r\n  \"quote_id\": \"string\",\r\n  \"service\": \"TOWING\",\r\n  \"cause\": \"MECHANIC_BREAKDOWN\",\r\n  \"place_type\": \"BASEMENT\",\r\n  \"vehicle\": {\r\n    \"registration_number\": \"string\",\r\n    \"brand\": \"Audi\",\r\n    \"model\": \"A5\"\r\n  },\r\n  \"is_payer_the_customer\": true,\r\n  \"payer\": {\r\n    \"person\": {\r\n      \"title\": \"string\",\r\n      \"first_name\": \"string\",\r\n      \"last_name\": \"string\",\r\n      \"second_last_name\": \"string\",\r\n      \"email\": \"punith.564@gmail.com\",\r\n      \"person_registrations\": [\r\n        {\r\n          \"registration_type\": \"string\",\r\n          \"value\": \"string\"\r\n        }\r\n      ]\r\n    },\r\n    \"phones\": [\r\n      {\r\n        \"phone_type\": \"MOBILE\",\r\n        \"international_prefix\": \"+33\",\r\n        \"number\": \"0123456789\"\r\n      }\r\n    ],\r\n    \"fiscal_address\": {\r\n      \"street_address\": \"5 rue du bac\",\r\n      \"postal_code\": \"75007\",\r\n      \"locality\": \"string\",\r\n      \"country\": \"fr\",\r\n      \"subdivision\": \"string\",\r\n      \"state\": \"string\"\r\n    }\r\n  },\r\n  \"current_location\": {\r\n    \"longitude\": 0,\r\n    \"latitude\": 0\r\n  },\r\n  \"destination_location\": {\r\n    \"longitude\": 0,\r\n    \"latitude\": 0\r\n  },\r\n  \"to_schedule_on\": \"2010-01-01T12:00:00+01:00\"\r\n}"
				},
				"url": {
					"raw": "http://localhost:8081/axa-poc/roadside/orders",
					"protocol": "http",
					"host": [
						"localhost"
					],
					"port": "8081",
					"path": [
						"axa-poc",
						"roadside",
						"orders"
					]
				}
			},
			"response": []
		}
	]
}